threads = 1:

 Performance counter stats for './ln2' (100 runs):

        728,914293      task-clock (msec)         #    1,000 CPUs utilized            ( +-  0,05% )
                 1      context-switches          #    0,001 K/sec                    ( +-  7,32% )
                 1      cpu-migrations            #    0,001 K/sec                    ( +- 19,78% )
                66      page-faults               #    0,091 K/sec                    ( +-  0,14% )
     2.804.903.086      cycles                    #    3,848 GHz                      ( +-  0,02% ) [49,49%]
                 0      stalled-cycles-frontend   #    0,00% frontend cycles idle
                 0      stalled-cycles-backend    #    0,00% backend  cycles idle
     1.700.501.127      instructions              #    0,61  insns per cycle          ( +-  0,04% ) [62,16%]
       100.216.229      branches                  #  137,487 M/sec                    ( +-  0,03% ) [62,36%]
            12.541      branch-misses             #    0,01% of all branches          ( +-  0,87% ) [62,90%]
           610.627      L1-dcache-loads           #    0,838 M/sec                    ( +-  0,45% ) [63,37%]
            14.408      L1-dcache-load-misses     #    2,36% of all L1-dcache hits    ( +-  3,05% ) [63,13%]
             3.847      LLC-loads                 #    0,005 M/sec                    ( +-  4,21% ) [50,04%]
               595      LLC-load-misses           #   15,48% of all LL-cache hits     ( +- 10,32% ) [49,53%]

       0,728735329 seconds time elapsed                                          ( +-  0,05% )

threads = 2:

 Performance counter stats for './ln2' (100 runs):

        734,344354      task-clock (msec)         #    1,999 CPUs utilized            ( +-  0,07% )
                 1      context-switches          #    0,001 K/sec                    ( +-  9,51% )
                 1      cpu-migrations            #    0,002 K/sec                    ( +-  5,43% )
                68      page-faults               #    0,093 K/sec                    ( +-  0,15% )
     2.763.328.314      cycles                    #    3,763 GHz                      ( +-  0,11% ) [49,72%]
                 0      stalled-cycles-frontend   #    0,00% frontend cycles idle
                 0      stalled-cycles-backend    #    0,00% backend  cycles idle
     1.671.092.253      instructions              #    0,60  insns per cycle          ( +-  0,07% ) [63,18%]
        99.540.500      branches                  #  135,550 M/sec                    ( +-  0,06% ) [63,59%]
            13.528      branch-misses             #    0,01% of all branches          ( +-  0,92% ) [63,93%]
           717.318      L1-dcache-loads           #    0,977 M/sec                    ( +-  0,50% ) [64,02%]
            19.518      L1-dcache-load-misses     #    2,72% of all L1-dcache hits    ( +-  1,83% ) [63,07%]
             6.496      LLC-loads                 #    0,009 M/sec                    ( +-  3,20% ) [49,02%]
               232      LLC-load-misses           #    3,58% of all LL-cache hits     ( +- 18,48% ) [48,57%]

       0,367293710 seconds time elapsed                                          ( +-  0,07% )

threads = 4:

 Performance counter stats for './ln2' (100 runs):

        772,885031      task-clock (msec)         #    3,937 CPUs utilized            ( +-  0,79% )
                 4      context-switches          #    0,005 K/sec                    ( +-  6,43% )
                 5      cpu-migrations            #    0,006 K/sec                    ( +-  3,50% )
                73      page-faults               #    0,095 K/sec                    ( +-  0,12% )
     2.852.194.618      cycles                    #    3,690 GHz                      ( +-  0,84% ) [49,55%]
                 0      stalled-cycles-frontend   #    0,00% frontend cycles idle
                 0      stalled-cycles-backend    #    0,00% backend  cycles idle
     1.703.868.038      instructions              #    0,60  insns per cycle          ( +-  0,02% ) [62,18%]
       101.462.481      branches                  #  131,278 M/sec                    ( +-  0,11% ) [62,21%]
            16.478      branch-misses             #    0,02% of all branches          ( +-  0,72% ) [62,25%]
         1.096.028      L1-dcache-loads           #    1,418 M/sec                    ( +-  5,54% ) [63,33%]
            16.753      L1-dcache-load-misses     #    1,53% of all L1-dcache hits    ( +-  2,28% ) [64,67%]
             3.765      LLC-loads                 #    0,005 M/sec                    ( +-  3,53% ) [51,31%]
               444      LLC-load-misses           #   11,80% of all LL-cache hits     ( +- 18,07% ) [50,02%]

       0,196302574 seconds time elapsed                                          ( +-  1,57% )

threads = 8:

 Performance counter stats for './ln2' (100 runs):

       1522,105885      task-clock (msec)         #    7,971 CPUs utilized            ( +-  0,04% )
                66      context-switches          #    0,043 K/sec                    ( +-  2,82% )
                 7      cpu-migrations            #    0,005 K/sec                    ( +-  0,58% )
                81      page-faults               #    0,053 K/sec                    ( +-  0,11% )
     5.608.792.770      cycles                    #    3,685 GHz                      ( +-  0,05% ) [49,57%]
                 0      stalled-cycles-frontend   #    0,00% frontend cycles idle
                 0      stalled-cycles-backend    #    0,00% backend  cycles idle
     1.707.445.705      instructions              #    0,30  insns per cycle          ( +-  0,03% ) [62,14%]
       101.988.375      branches                  #   67,005 M/sec                    ( +-  0,15% ) [62,15%]
            21.986      branch-misses             #    0,02% of all branches          ( +-  0,79% ) [62,23%]
         1.667.367      L1-dcache-loads           #    1,095 M/sec                    ( +-  3,83% ) [62,80%]
            56.277      L1-dcache-load-misses     #    3,38% of all L1-dcache hits    ( +-  1,82% ) [64,11%]
             6.971      LLC-loads                 #    0,005 M/sec                    ( +-  4,37% ) [51,57%]
               339      LLC-load-misses           #    4,86% of all LL-cache hits     ( +- 18,47% ) [50,44%]

       0,190947500 seconds time elapsed                                          ( +-  0,02% )
